Gender, Degrees and Wages: The Bayesian Workflow Applied to US Census Data
…
In the first data cleaning step, we remove individuals who did not graduate college (see R script here) and write the remaining 3,489,070 entries to a file called us16_filtered.csv.

Next up, we add information about college majors by merging our dataset with a lookup file called majors-list.csv prepared by FiveThirtyEight (GitHub link). This lookup file matches the FOD1P codes used in the PUMS to actual names of the corresponding college majors. Additionally, these college majors are grouped into categories as used in a major 2011 study 44 Carnevale et al., “What’s It Worth?: The Economic Value of College Majors.” Georgetown University Center on Education and the Workforce, 2011. Website.

You can find the R script we used to merge datasets on GitHub. This script also converts all wages reported before 2016 to inflation-adjusted wages equivalent to 2016 dollars, before writing selected columns for the 3,489,070 entries to a file called selected_vars.csv.

Selecting the data subset

The file selected_vars.csv is the starting point for our actual analysis:

library(readr)
selected_vars <- read_csv("data/selected_vars.csv")
selected_vars

## # A tibble: 3,489,070 x 9
##     SERIALNO    ST  AGEP   SEX FOD1P Major  Major_Category real_total_earn
##        <dbl> <int> <int> <int> <int> <chr>  <chr>                    <dbl>
##  1   2.01e¹²    13    69     1  4101 PHYSI… Industrial Ar…           36961
##  2   2.01e¹²    13    53     2  2304 ELEME… Education                41185
##  3   2.01e¹²    13    34     2  1100 GENER… Agriculture &…            4435
##  4   2.01e¹²    13    56     1  6203 BUSIN… Business                 13728
##  5   2.01e¹²     6    49     1  2414 MECHA… Engineering              72866
##  6   2.01e¹²     6    48     2  3600 BIOLO… Biology & Lif…          211206
##  7   2.01e¹²     6    50     2  2300 GENER… Education                84482
##  8   2.01e¹²     5    67     2  6004 COMME… Arts                     10455
##  9   2.01e¹²     6    59     1  5003 CHEMI… Physical Scie…               0
## 10   2.01e¹²     6    54     2  2901 FAMIL… Industrial Ar…               0
## # ... with 3,489,060 more rows, and 1 more variable: real_wage <dbl>
…
